$date
	Sat Sep 26 11:29:16 2020
$end
$version
	Icarus Verilog
$end
$timescale
	100ps
$end
$scope module BUF $end
$var wire 1 ! A $end
$var wire 1 " Y $end
$upscope $end
$scope module BancoPruebas $end
$var wire 1 # validOut $end
$var wire 1 $ validIn $end
$var wire 8 % salidaDemux_E [7:0] $end
$var wire 8 & salidaDemux_C [7:0] $end
$var wire 1 ' reset $end
$var wire 32 ( demuxInput [31:0] $end
$var wire 1 ) clk_4MHz $end
$var wire 1 * clk_32MHz $end
$var wire 1 + clk_2MHz $end
$var wire 1 , clk_1MHz $end
$scope module demux_32x8_C $end
$var wire 1 $ validIn $end
$var wire 1 ' reset $end
$var wire 32 - demuxInput [31:0] $end
$var wire 1 ) clk_4MHz $end
$var reg 8 . salidaDemux_C [7:0] $end
$var reg 2 / selector [1:0] $end
$var reg 1 0 validOut $end
$upscope $end
$scope module demux_32x8_E $end
$var wire 1 # validOut $end
$var wire 1 $ validIn $end
$var wire 2 1 selector [1:0] $end
$var wire 8 2 salidaDemux_E [7:0] $end
$var wire 1 ' reset $end
$var wire 32 3 demuxInput [31:0] $end
$var wire 1 ) clk_4MHz $end
$var wire 1 4 _067_ $end
$var wire 1 5 _066_ $end
$var wire 1 6 _065_ $end
$var wire 1 7 _064_ $end
$var wire 1 8 _063_ $end
$var wire 1 9 _062_ $end
$var wire 1 : _061_ $end
$var wire 1 ; _060_ $end
$var wire 1 < _059_ $end
$var wire 1 = _058_ $end
$var wire 1 > _057_ $end
$var wire 1 ? _056_ $end
$var wire 1 @ _055_ $end
$var wire 1 A _054_ $end
$var wire 1 B _053_ $end
$var wire 1 C _052_ $end
$var wire 1 D _051_ $end
$var wire 1 E _050_ $end
$var wire 1 F _049_ $end
$var wire 1 G _048_ $end
$var wire 1 H _047_ $end
$var wire 1 I _046_ $end
$var wire 1 J _045_ $end
$var wire 1 K _044_ $end
$var wire 1 L _043_ $end
$var wire 1 M _042_ $end
$var wire 1 N _041_ $end
$var wire 1 O _040_ $end
$var wire 1 P _039_ $end
$var wire 1 Q _038_ $end
$var wire 1 R _037_ $end
$var wire 1 S _036_ $end
$var wire 1 T _035_ $end
$var wire 1 U _034_ $end
$var wire 1 V _033_ $end
$var wire 1 W _032_ $end
$var wire 1 X _031_ $end
$var wire 1 Y _030_ $end
$var wire 1 Z _029_ $end
$var wire 1 [ _028_ $end
$var wire 1 \ _027_ $end
$var wire 1 ] _026_ $end
$var wire 1 ^ _025_ $end
$var wire 1 _ _024_ $end
$var wire 1 ` _023_ $end
$var wire 1 a _022_ $end
$var wire 1 b _021_ $end
$var wire 1 c _020_ $end
$var wire 1 d _019_ $end
$var wire 1 e _018_ $end
$var wire 1 f _017_ $end
$var wire 1 g _016_ $end
$var wire 1 h _015_ $end
$var wire 1 i _014_ $end
$var wire 1 j _013_ $end
$var wire 1 k _012_ $end
$var wire 1 l _011_ $end
$var wire 1 m _010_ $end
$var wire 1 n _009_ $end
$var wire 1 o _008_ $end
$var wire 1 p _007_ $end
$var wire 1 q _006_ $end
$var wire 1 r _005_ $end
$var wire 1 s _004_ $end
$var wire 1 t _003_ $end
$var wire 1 u _002_ $end
$var wire 2 v _001_ [1:0] $end
$var wire 8 w _000_ [7:0] $end
$scope module _068_ $end
$var wire 1 [ Y $end
$var wire 1 $ B $end
$var wire 1 ' A $end
$upscope $end
$scope module _069_ $end
$var wire 1 x A $end
$var wire 1 Z Y $end
$upscope $end
$scope module _070_ $end
$var wire 1 y A $end
$var wire 1 Z B $end
$var wire 1 Y Y $end
$upscope $end
$scope module _071_ $end
$var wire 1 Y A $end
$var wire 1 z B $end
$var wire 1 X Y $end
$upscope $end
$scope module _072_ $end
$var wire 1 { A $end
$var wire 1 W Y $end
$upscope $end
$scope module _073_ $end
$var wire 1 W A $end
$var wire 1 | B $end
$var wire 1 V Y $end
$upscope $end
$scope module _074_ $end
$var wire 1 V A $end
$var wire 1 } B $end
$var wire 1 U Y $end
$upscope $end
$scope module _075_ $end
$var wire 1 U A $end
$var wire 1 X B $end
$var wire 1 T Y $end
$upscope $end
$scope module _076_ $end
$var wire 1 ~ A $end
$var wire 1 !" B $end
$var wire 1 S Y $end
$upscope $end
$scope module _077_ $end
$var wire 1 S A $end
$var wire 1 "" B $end
$var wire 1 R Y $end
$upscope $end
$scope module _078_ $end
$var wire 1 W A $end
$var wire 1 Z B $end
$var wire 1 Q Y $end
$upscope $end
$scope module _079_ $end
$var wire 1 Q A $end
$var wire 1 #" B $end
$var wire 1 P Y $end
$upscope $end
$scope module _080_ $end
$var wire 1 P A $end
$var wire 1 R B $end
$var wire 1 O Y $end
$upscope $end
$scope module _081_ $end
$var wire 1 O A $end
$var wire 1 T B $end
$var wire 1 N Y $end
$upscope $end
$scope module _082_ $end
$var wire 1 N A $end
$var wire 1 [ B $end
$var wire 1 $" Y $end
$upscope $end
$scope module _083_ $end
$var wire 1 Y A $end
$var wire 1 %" B $end
$var wire 1 M Y $end
$upscope $end
$scope module _084_ $end
$var wire 1 V A $end
$var wire 1 &" B $end
$var wire 1 L Y $end
$upscope $end
$scope module _085_ $end
$var wire 1 L A $end
$var wire 1 M B $end
$var wire 1 K Y $end
$upscope $end
$scope module _086_ $end
$var wire 1 S A $end
$var wire 1 '" B $end
$var wire 1 J Y $end
$upscope $end
$scope module _087_ $end
$var wire 1 Q A $end
$var wire 1 (" B $end
$var wire 1 I Y $end
$upscope $end
$scope module _088_ $end
$var wire 1 I A $end
$var wire 1 J B $end
$var wire 1 H Y $end
$upscope $end
$scope module _089_ $end
$var wire 1 H A $end
$var wire 1 K B $end
$var wire 1 G Y $end
$upscope $end
$scope module _090_ $end
$var wire 1 G A $end
$var wire 1 [ B $end
$var wire 1 )" Y $end
$upscope $end
$scope module _091_ $end
$var wire 1 Y A $end
$var wire 1 *" B $end
$var wire 1 F Y $end
$upscope $end
$scope module _092_ $end
$var wire 1 V A $end
$var wire 1 +" B $end
$var wire 1 E Y $end
$upscope $end
$scope module _093_ $end
$var wire 1 E A $end
$var wire 1 F B $end
$var wire 1 D Y $end
$upscope $end
$scope module _094_ $end
$var wire 1 S A $end
$var wire 1 ," B $end
$var wire 1 C Y $end
$upscope $end
$scope module _095_ $end
$var wire 1 Q A $end
$var wire 1 -" B $end
$var wire 1 B Y $end
$upscope $end
$scope module _096_ $end
$var wire 1 B A $end
$var wire 1 C B $end
$var wire 1 A Y $end
$upscope $end
$scope module _097_ $end
$var wire 1 A A $end
$var wire 1 D B $end
$var wire 1 @ Y $end
$upscope $end
$scope module _098_ $end
$var wire 1 @ A $end
$var wire 1 [ B $end
$var wire 1 ." Y $end
$upscope $end
$scope module _099_ $end
$var wire 1 Y A $end
$var wire 1 /" B $end
$var wire 1 ? Y $end
$upscope $end
$scope module _100_ $end
$var wire 1 V A $end
$var wire 1 0" B $end
$var wire 1 > Y $end
$upscope $end
$scope module _101_ $end
$var wire 1 > A $end
$var wire 1 ? B $end
$var wire 1 = Y $end
$upscope $end
$scope module _102_ $end
$var wire 1 S A $end
$var wire 1 1" B $end
$var wire 1 < Y $end
$upscope $end
$scope module _103_ $end
$var wire 1 Q A $end
$var wire 1 2" B $end
$var wire 1 ; Y $end
$upscope $end
$scope module _104_ $end
$var wire 1 ; A $end
$var wire 1 < B $end
$var wire 1 : Y $end
$upscope $end
$scope module _105_ $end
$var wire 1 : A $end
$var wire 1 = B $end
$var wire 1 9 Y $end
$upscope $end
$scope module _106_ $end
$var wire 1 9 A $end
$var wire 1 [ B $end
$var wire 1 3" Y $end
$upscope $end
$scope module _107_ $end
$var wire 1 Y A $end
$var wire 1 4" B $end
$var wire 1 8 Y $end
$upscope $end
$scope module _108_ $end
$var wire 1 V A $end
$var wire 1 5" B $end
$var wire 1 7 Y $end
$upscope $end
$scope module _109_ $end
$var wire 1 7 A $end
$var wire 1 8 B $end
$var wire 1 6 Y $end
$upscope $end
$scope module _110_ $end
$var wire 1 S A $end
$var wire 1 6" B $end
$var wire 1 5 Y $end
$upscope $end
$scope module _111_ $end
$var wire 1 Q A $end
$var wire 1 7" B $end
$var wire 1 4 Y $end
$upscope $end
$scope module _112_ $end
$var wire 1 4 A $end
$var wire 1 5 B $end
$var wire 1 t Y $end
$upscope $end
$scope module _113_ $end
$var wire 1 t A $end
$var wire 1 6 B $end
$var wire 1 s Y $end
$upscope $end
$scope module _114_ $end
$var wire 1 s A $end
$var wire 1 [ B $end
$var wire 1 8" Y $end
$upscope $end
$scope module _115_ $end
$var wire 1 Y A $end
$var wire 1 9" B $end
$var wire 1 r Y $end
$upscope $end
$scope module _116_ $end
$var wire 1 V A $end
$var wire 1 :" B $end
$var wire 1 q Y $end
$upscope $end
$scope module _117_ $end
$var wire 1 q A $end
$var wire 1 r B $end
$var wire 1 p Y $end
$upscope $end
$scope module _118_ $end
$var wire 1 S A $end
$var wire 1 ;" B $end
$var wire 1 o Y $end
$upscope $end
$scope module _119_ $end
$var wire 1 Q A $end
$var wire 1 <" B $end
$var wire 1 n Y $end
$upscope $end
$scope module _120_ $end
$var wire 1 n A $end
$var wire 1 o B $end
$var wire 1 m Y $end
$upscope $end
$scope module _121_ $end
$var wire 1 m A $end
$var wire 1 p B $end
$var wire 1 l Y $end
$upscope $end
$scope module _122_ $end
$var wire 1 l A $end
$var wire 1 [ B $end
$var wire 1 =" Y $end
$upscope $end
$scope module _123_ $end
$var wire 1 Y A $end
$var wire 1 >" B $end
$var wire 1 k Y $end
$upscope $end
$scope module _124_ $end
$var wire 1 V A $end
$var wire 1 ?" B $end
$var wire 1 j Y $end
$upscope $end
$scope module _125_ $end
$var wire 1 j A $end
$var wire 1 k B $end
$var wire 1 i Y $end
$upscope $end
$scope module _126_ $end
$var wire 1 S A $end
$var wire 1 @" B $end
$var wire 1 h Y $end
$upscope $end
$scope module _127_ $end
$var wire 1 Q A $end
$var wire 1 A" B $end
$var wire 1 g Y $end
$upscope $end
$scope module _128_ $end
$var wire 1 g A $end
$var wire 1 h B $end
$var wire 1 f Y $end
$upscope $end
$scope module _129_ $end
$var wire 1 f A $end
$var wire 1 i B $end
$var wire 1 e Y $end
$upscope $end
$scope module _130_ $end
$var wire 1 e A $end
$var wire 1 [ B $end
$var wire 1 B" Y $end
$upscope $end
$scope module _131_ $end
$var wire 1 Y A $end
$var wire 1 C" B $end
$var wire 1 d Y $end
$upscope $end
$scope module _132_ $end
$var wire 1 V A $end
$var wire 1 D" B $end
$var wire 1 c Y $end
$upscope $end
$scope module _133_ $end
$var wire 1 c A $end
$var wire 1 d B $end
$var wire 1 b Y $end
$upscope $end
$scope module _134_ $end
$var wire 1 S A $end
$var wire 1 E" B $end
$var wire 1 a Y $end
$upscope $end
$scope module _135_ $end
$var wire 1 Q A $end
$var wire 1 F" B $end
$var wire 1 ` Y $end
$upscope $end
$scope module _136_ $end
$var wire 1 ` A $end
$var wire 1 a B $end
$var wire 1 _ Y $end
$upscope $end
$scope module _137_ $end
$var wire 1 _ A $end
$var wire 1 b B $end
$var wire 1 ^ Y $end
$upscope $end
$scope module _138_ $end
$var wire 1 ^ A $end
$var wire 1 [ B $end
$var wire 1 G" Y $end
$upscope $end
$scope module _139_ $end
$var wire 1 [ A $end
$var wire 1 u Y $end
$upscope $end
$scope module _140_ $end
$var wire 1 [ A $end
$var wire 1 H" B $end
$var wire 1 I" Y $end
$upscope $end
$scope module _141_ $end
$var wire 1 S A $end
$var wire 1 ] Y $end
$upscope $end
$scope module _142_ $end
$var wire 1 ] A $end
$var wire 1 u B $end
$var wire 1 \ Y $end
$upscope $end
$scope module _143_ $end
$var wire 1 \ A $end
$var wire 1 Q B $end
$var wire 1 J" Y $end
$upscope $end
$scope module _144_ $end
$var wire 1 u D $end
$var wire 1 ) C $end
$var reg 1 K" Q $end
$upscope $end
$scope module _145_ $end
$var wire 1 L" D $end
$var wire 1 ) C $end
$var reg 1 M" Q $end
$upscope $end
$scope module _146_ $end
$var wire 1 N" D $end
$var wire 1 ) C $end
$var reg 1 O" Q $end
$upscope $end
$scope module _147_ $end
$var wire 1 P" D $end
$var wire 1 ) C $end
$var reg 1 Q" Q $end
$upscope $end
$scope module _148_ $end
$var wire 1 R" D $end
$var wire 1 ) C $end
$var reg 1 S" Q $end
$upscope $end
$scope module _149_ $end
$var wire 1 T" D $end
$var wire 1 ) C $end
$var reg 1 U" Q $end
$upscope $end
$scope module _150_ $end
$var wire 1 V" D $end
$var wire 1 ) C $end
$var reg 1 W" Q $end
$upscope $end
$scope module _151_ $end
$var wire 1 X" D $end
$var wire 1 ) C $end
$var reg 1 Y" Q $end
$upscope $end
$scope module _152_ $end
$var wire 1 Z" D $end
$var wire 1 ) C $end
$var reg 1 [" Q $end
$upscope $end
$scope module _153_ $end
$var wire 1 \" D $end
$var wire 1 ) C $end
$var reg 1 ]" Q $end
$upscope $end
$scope module _154_ $end
$var wire 1 ^" D $end
$var wire 1 ) C $end
$var reg 1 _" Q $end
$upscope $end
$upscope $end
$scope module probadorDemux $end
$var wire 8 `" salidaDemux_C [7:0] $end
$var wire 8 a" salidaDemux_E [7:0] $end
$var wire 1 # validOut $end
$var reg 1 , clk_1MHz $end
$var reg 1 + clk_2MHz $end
$var reg 1 * clk_32MHz $end
$var reg 1 ) clk_4MHz $end
$var reg 32 b" demuxInput [31:0] $end
$var reg 1 ' reset $end
$var reg 1 $ validIn $end
$upscope $end
$upscope $end
$scope module DFFSR $end
$var wire 1 c" C $end
$var wire 1 d" D $end
$var wire 1 e" R $end
$var wire 1 f" S $end
$var reg 1 g" Q $end
$upscope $end
$enddefinitions $end
#0
$dumpvars
xg"
zf"
ze"
zd"
zc"
b0 b"
bx a"
bx `"
x_"
0^"
x]"
0\"
x["
0Z"
xY"
0X"
xW"
0V"
xU"
0T"
xS"
0R"
xQ"
0P"
xO"
0N"
xM"
0L"
xK"
0J"
0I"
xH"
0G"
0F"
0E"
0D"
0C"
0B"
0A"
0@"
0?"
0>"
0="
0<"
0;"
0:"
09"
08"
07"
06"
05"
04"
03"
02"
01"
00"
0/"
0."
0-"
0,"
0+"
0*"
0)"
0("
0'"
0&"
0%"
0$"
0#"
0""
x!"
x~
0}
x|
x{
0z
xy
xx
b0 w
b0 v
0u
0t
1s
1r
1q
0p
1o
1n
0m
1l
1k
1j
0i
1h
1g
0f
1e
1d
1c
0b
1a
1`
0_
1^
x]
1\
1[
xZ
xY
1X
xW
xV
1U
0T
xS
1R
xQ
1P
0O
1N
1M
1L
0K
1J
1I
0H
1G
1F
1E
0D
1C
1B
0A
1@
1?
1>
0=
1<
1;
0:
19
18
17
06
15
14
b0 3
bx 2
bx 1
x0
bx /
bx .
b0 -
0,
0+
0*
0)
b0 (
0'
bx &
bx %
0$
x#
z"
z!
$end
#313
1*
#626
0*
#939
1*
#1252
0*
#1565
1*
#1878
0*
#2191
1*
#2500
0Y
0]
0Q
0V
1S
1Z
1W
0H"
0!"
0|
0x
0~
0{
0y
0#
00
b0 /
b0 &
b0 .
b0 `"
0K"
0M"
0O"
0Q"
0S"
0U"
0W"
0Y"
b0 %
b0 2
b0 a"
0["
0]"
b0 1
0_"
1)
#2504
0*
#2817
1*
#3130
0*
#3443
1*
#3756
0*
#4069
1*
#4382
0*
#4695
1*
#5000
0)
1+
#5008
0*
#5321
1*
#5634
0*
#5947
1*
#6260
0*
#6573
1*
#6886
0*
#7199
1*
#7500
1)
#7512
0*
#7825
1*
#8138
0*
#8451
1*
#8764
0*
#9077
1*
#9390
0*
#9703
1*
#10000
1\"
b1 v
1I"
1u
0[
1F"
1D"
1A"
1?"
17"
1+"
1&"
1#"
1}
b1100011111010001 (
b1100011111010001 -
b1100011111010001 3
b1100011111010001 b"
1$
1'
0)
0+
1,
#10016
0*
#10329
1*
#10642
0*
#10955
1*
#11268
0*
#11581
1*
#11894
0*
#12207
1*
#12500
1^"
1J"
0\
0\"
1]
1Y
b10 v
0I"
0S
0Z
1H"
1!"
1|
1x
10
b1 /
1#
1K"
b1 1
1]"
1)
#12520
0*
#12833
1*
#13146
0*
#13459
1*
#13772
0*
#14085
1*
#14398
0*
#14711
1*
#15000
0)
1+
#15024
0*
#15337
1*
#15650
0*
#15963
1*
#16276
0*
#16589
1*
#16902
0*
#17215
1*
#17500
1L"
1N"
1P"
1X"
1Z"
1$"
1)"
1."
1B"
b11000111 w
1G"
0N
0G
0@
0e
0^
1T
1K
1D
1i
1b
0U
0L
0E
0j
0c
1V
1\"
0Y
b11 v
1I"
0W
1Z
1~
1{
1y
0H"
0!"
0|
0x
1_"
b10 1
0]"
b10 /
1)
#17528
0*
#17841
1*
#18154
0*
#18467
1*
#18780
0*
#19093
1*
#19406
0*
#19719
1*
#20000
0)
0+
0,
#20032
0*
#20345
1*
#20658
0*
#20971
1*
#21284
0*
#21597
1*
#21910
0*
#22223
1*
#22500
1T"
0N"
0P"
18"
0)"
b11010001 w
0."
0s
1G
1@
1O
1t
1f
1_
0T
0K
0D
0i
0b
0^"
0P
04
0g
0`
0J"
1U
1L
1E
1j
1c
0\"
1Q
b0 v
0I"
0V
0Z
1H"
1!"
1|
1x
b11000111 &
b11000111 .
b11000111 `"
b11 /
1M"
1O"
1Q"
1Y"
b11000111 %
b11000111 2
b11000111 a"
1["
b11 1
1]"
1)
#22536
0*
#22849
1*
#23162
0*
#23475
1*
#23788
0*
#24101
1*
#24414
0*
#24727
1*
#25000
0)
1+
#25040
0*
#25353
1*
#25666
0*
#25979
1*
#26292
0*
#26605
1*
#26918
0*
#27231
1*
#27500
0L"
0X"
0Z"
0T"
0$"
0B"
0G"
0N"
0P"
08"
0)"
b0 w
0."
1N
1e
1^
1s
1G
1@
0O
0t
0f
0_
0T
0K
0D
0i
0b
0^"
1\
1P
14
1g
1`
0J"
1U
1L
1E
1j
1c
1\"
0]
0Q
b1 v
1I"
1S
0V
1W
1Z
0~
0{
0y
0H"
0!"
0|
0x
0_"
b0 1
0]"
1U"
0Q"
b11010001 %
b11010001 2
b11010001 a"
0O"
b11010001 &
b11010001 .
b11010001 `"
b0 /
1)
#27544
0*
#27857
1*
#28170
0*
#28483
1*
#28796
0*
#29109
1*
#29422
0*
#29735
1*
#30000
0A"
0?"
1<"
07"
10"
1("
0#"
1z
b11000111110100010 (
b11000111110100010 -
b11000111110100010 3
b11000111110100010 b"
0)
0+
1,
#30048
0*
#30361
1*
#30674
0*
#30987
1*
#31300
0*
#31613
1*
#31926
0*
#32239
1*
#32500
1L"
b1 w
1$"
0N
1^"
1J"
1T
0\
0X
0\"
1]
1Y
b10 v
0I"
0S
0Z
1H"
1!"
1|
1x
b0 &
b0 .
b0 `"
b1 /
0M"
0U"
0Y"
b0 %
b0 2
b0 a"
0["
b1 1
1]"
1)
#32552
0*
#32865
1*
#33178
0*
#33491
1*
#33804
0*
#34117
1*
#34430
0*
#34743
1*
#35000
0)
1+
#35056
0*
#35369
1*
#35682
0*
#35995
1*
#36308
0*
#36621
1*
#36934
0*
#37247
1*
#37500
1N"
1P"
1R"
1Z"
1)"
1."
13"
1G"
1L"
b10001111 w
1$"
0G
0@
09
0^
0N
1K
1D
1=
1b
1T
0U
0L
0E
0>
0c
1X
1V
1\"
0Y
b11 v
1I"
0W
1Z
1~
1{
1y
0H"
0!"
0|
0x
1_"
b10 1
0]"
b1 %
b1 2
b1 a"
1M"
b1 &
b1 .
b1 `"
b10 /
1)
#37560
0*
#37873
1*
#38186
0*
#38499
1*
#38812
0*
#39125
1*
#39438
0*
#39751
1*
#40000
0)
0+
0,
#40064
0*
#40377
1*
#40690
0*
#41003
1*
#41316
0*
#41629
1*
#41942
0*
#42255
1*
#42500
1V"
0L"
0P"
0R"
1="
0$"
0."
b10100010 w
03"
0l
1N
1@
19
1H
1m
1_
0T
0K
0D
0=
0b
0^"
0I
0n
0`
0J"
1U
1L
1E
1>
1c
0\"
1Q
b0 v
0I"
0V
0Z
1H"
1!"
1|
1x
b10001111 &
b10001111 .
b10001111 `"
b11 /
1O"
1Q"
1S"
b10001111 %
b10001111 2
b10001111 a"
1["
b11 1
1]"
1)
#42568
0*
#42881
1*
#43194
0*
#43507
1*
#43820
0*
#44133
1*
#44446
0*
#44759
1*
#45000
0)
1+
#45072
0*
#45385
1*
#45698
0*
#46011
1*
#46324
0*
#46637
1*
#46950
0*
#47263
1*
#47500
0N"
0Z"
0V"
0)"
0G"
0L"
0P"
0R"
0="
0$"
0."
b0 w
03"
1G
1^
1l
1N
1@
19
0H
0m
0_
0T
0K
0D
0=
0b
0^"
1\
1I
1n
1`
0J"
1U
1L
1E
1>
1c
1\"
0]
0Q
b1 v
1I"
1S
0V
1W
1Z
0~
0{
0y
0H"
0!"
0|
0x
0_"
b0 1
0]"
1W"
0S"
0Q"
b10100010 %
b10100010 2
b10100010 a"
0M"
b10100010 &
b10100010 .
b10100010 `"
b0 /
1)
#47576
0*
#47889
1*
#48202
0*
#48515
1*
#48828
0*
#49141
1*
#49454
0*
#49767
1*
#50000
0F"
0D"
1A"
1?"
17"
15"
00"
1%"
1#"
0z
b100101011101110011 (
b100101011101110011 -
b100101011101110011 3
b100101011101110011 b"
0)
0+
1,
#50080
0*
#50393
1*
#50706
0*
#51019
1*
#51332
0*
#51645
1*
#51958
0*
#52271
1*
#52500
1N"
b10 w
1)"
0G
1^"
1J"
1K
0\
0M
0\"
1]
1Y
b10 v
0I"
0S
0Z
1H"
1!"
1|
1x
b0 &
b0 .
b0 `"
b1 /
0O"
0W"
b0 %
b0 2
b0 a"
0["
b1 1
1]"
1)
#52584
0*
#52897
1*
#53210
0*
#53523
1*
#53836
0*
#54149
1*
#54462
0*
#54775
1*
#55000
0)
1+
#55088
0*
#55401
1*
#55714
0*
#56027
1*
#56340
0*
#56653
1*
#56966
0*
#57279
1*
#57500
1L"
1P"
1T"
1X"
1$"
1."
18"
1B"
1N"
b1010111 w
1)"
0N
0@
0s
0e
0G
1T
1D
16
1i
1K
0U
0L
0E
07
0j
1M
1V
1\"
0Y
b11 v
1I"
0W
1Z
1~
1{
1y
0H"
0!"
0|
0x
1_"
b10 1
0]"
b10 %
b10 2
b10 a"
1O"
b10 &
b10 .
b10 `"
b10 /
1)
#57592
0*
#57905
1*
#58218
0*
#58531
1*
#58844
0*
#59157
1*
#59470
0*
#59783
1*
#60000
0)
0+
0,
#60096
0*
#60409
1*
#60722
0*
#61035
1*
#61348
0*
#61661
1*
#61974
0*
#62287
1*
#62500
1V"
0P"
1="
b1110011 w
0."
0l
1@
1O
1H
1t
1m
1f
0T
0K
0D
06
0i
0^"
0P
0I
04
0n
0g
0J"
1U
1L
1E
17
1j
0\"
1Q
b0 v
0I"
0V
0Z
1H"
1!"
1|
1x
b1010111 &
b1010111 .
b1010111 `"
b11 /
1M"
1Q"
1U"
b1010111 %
b1010111 2
b1010111 a"
1Y"
b11 1
1]"
1)
#62600
0*
#62913
1*
#63226
0*
#63539
1*
#63852
0*
#64165
1*
#64478
0*
#64791
1*
#65000
0)
1+
#65104
0*
#65417
1*
#65730
0*
#66043
1*
#66356
0*
#66669
1*
#66982
0*
#67295
1*
#67500
0L"
0N"
0T"
0X"
0V"
0$"
0)"
08"
0B"
0P"
0="
b0 w
0."
1N
1G
1s
1e
1l
1@
0O
0H
0t
0m
0f
0T
0K
0D
06
0i
0^"
1\
1P
1I
14
1n
1g
0J"
1U
1L
1E
17
1j
1\"
0]
0Q
b1 v
1I"
1S
0V
1W
1Z
0~
0{
0y
0H"
0!"
0|
0x
0_"
b0 1
0]"
1W"
b1110011 %
b1110011 2
b1110011 a"
0Q"
b1110011 &
b1110011 .
b1110011 `"
b0 /
1)
#67608
0*
#67921
1*
#68234
0*
#68547
1*
#68860
0*
#69173
1*
#69486
0*
#69799
1*
#70000
0?"
0<"
07"
10"
1-"
0("
0#"
1z
b110001111101000100 (
b110001111101000100 -
b110001111101000100 3
b110001111101000100 b"
0)
0+
1,
#70112
0*
#70425
1*
#70738
0*
#71051
1*
#71364
0*
#71677
1*
#71990
0*
#72303
1*
#72500
1L"
1N"
1$"
b11 w
1)"
0N
0G
1^"
1J"
1T
1K
0\
0X
0M
0\"
1]
1Y
b10 v
0I"
0S
0Z
1H"
1!"
1|
1x
b0 &
b0 .
b0 `"
b1 /
0M"
0O"
0U"
0W"
b0 %
b0 2
b0 a"
0Y"
b1 1
1]"
1)
#72616
0*
#72929
1*
#73242
0*
#73555
1*
#73868
0*
#74181
1*
#74494
0*
#74807
1*
#75000
0)
1+
#75120
0*
#75433
1*
#75746
0*
#76059
1*
#76372
0*
#76685
1*
#76998
0*
#77311
1*
#77500
1P"
1R"
1T"
1."
13"
18"
1L"
1N"
1$"
b11111 w
1)"
0@
09
0s
0N
0G
1D
1=
16
1T
1K
0U
0L
0E
0>
07
1X
1M
1V
1\"
0Y
b11 v
1I"
0W
1Z
1~
1{
1y
0H"
0!"
0|
0x
1_"
b10 1
0]"
1O"
b11 %
b11 2
b11 a"
1M"
b11 &
b11 .
b11 `"
b10 /
1)
#77624
0*
#77937
1*
#78250
0*
#78563
1*
#78876
0*
#79189
1*
#79502
0*
#79815
1*
#80000
0)
0+
0,
#80128
0*
#80441
1*
#80754
0*
#81067
1*
#81380
0*
#81693
1*
#82006
0*
#82319
1*
#82500
1X"
0L"
0N"
0R"
0T"
1B"
0$"
0)"
03"
b1000100 w
08"
0e
1N
1G
19
1s
1A
1f
0T
0K
0D
0=
06
0^"
0B
0g
0J"
1U
1L
1E
1>
17
0\"
1Q
b0 v
0I"
0V
0Z
1H"
1!"
1|
1x
b11111 &
b11111 .
b11111 `"
b11 /
1Q"
1S"
b11111 %
b11111 2
b11111 a"
1U"
b11 1
1]"
1)
#82632
0*
#82945
1*
#83258
0*
#83571
1*
#83884
0*
#84197
1*
#84510
0*
#84823
1*
#85000
0)
1+
#85136
0*
#85449
1*
#85762
0*
#86075
1*
#86388
0*
#86701
1*
#87014
0*
#87327
1*
#87500
0P"
0X"
0."
0L"
0N"
0R"
0T"
0B"
0$"
0)"
03"
b0 w
08"
1@
1e
1N
1G
19
1s
0A
0f
0T
0K
0D
0=
06
0^"
1\
1B
1g
0J"
1U
1L
1E
1>
17
1\"
0]
0Q
b1 v
1I"
1S
0V
1W
1Z
0~
0{
0y
0H"
0!"
0|
0x
0_"
b0 1
0]"
1Y"
0U"
0S"
0O"
b1000100 %
b1000100 2
b1000100 a"
0M"
b1000100 &
b1000100 .
b1000100 `"
b0 /
1)
#87640
0*
#87953
1*
#88266
0*
#88579
1*
#88892
0*
#89205
1*
#89518
0*
#89831
1*
#90000
1D"
0A"
1?"
1:"
17"
05"
00"
1#"
b111110011100010101 (
b111110011100010101 -
b111110011100010101 3
b111110011100010101 b"
0)
0+
1,
#90144
0*
#90457
1*
#90770
0*
#91083
1*
#91396
0*
#91709
1*
#92022
0*
#92335
1*
#92500
1L"
1N"
1$"
b11 w
1)"
0N
0G
1^"
1J"
1T
1K
0\
0X
0M
0\"
1]
1Y
b10 v
0I"
0S
0Z
1H"
1!"
1|
1x
b0 &
b0 .
b0 `"
b1 /
0Q"
b0 %
b0 2
b0 a"
0Y"
b1 1
1]"
1)
#92648
0*
#92961
1*
#93274
0*
#93587
1*
#93900
0*
#94213
1*
#94526
0*
#94839
1*
#95000
0)
1+
#95152
0*
#95465
1*
#95778
0*
#96091
1*
#96404
0*
#96717
1*
#97030
0*
#97343
1*
#97500
1P"
1V"
1X"
1Z"
1."
1="
1B"
1G"
1L"
1N"
1$"
b11100111 w
1)"
0@
0l
0e
0^
0N
0G
1D
1p
1i
1b
1T
1K
0U
0L
0E
0q
0j
0c
1X
1M
1V
1\"
0Y
b11 v
1I"
0W
1Z
1~
1{
1y
0H"
0!"
0|
0x
1_"
b10 1
0]"
1O"
b11 %
b11 2
b11 a"
1M"
b11 &
b11 .
b11 `"
b10 /
1)
#97656
0*
#97969
1*
#98282
0*
#98595
1*
#98908
0*
#99221
1*
#99534
0*
#99847
1*
#100000
0)
0+
0,
#100160
0*
#100473
1*
#100786
0*
#101099
1*
#101412
0*
#101725
1*
#102038
0*
#102351
1*
#102500
1T"
0N"
0V"
0X"
0Z"
18"
0)"
0="
0B"
b10101 w
0G"
0s
1G
1l
1e
1^
1O
1A
1t
0T
0K
0D
0p
0i
0b
0^"
0P
0B
04
0J"
1U
1L
1E
1q
1j
1c
0\"
1Q
b0 v
0I"
0V
0Z
1H"
1!"
1|
1x
b11100111 &
b11100111 .
b11100111 `"
b11 /
1Q"
1W"
1Y"
b11100111 %
b11100111 2
b11100111 a"
1["
b11 1
1]"
1)
#102664
0*
#102977
1*
#103290
0*
#103603
1*
#103916
0*
#104229
1*
#104542
0*
#104855
1*
#105000
0)
1+
#105168
0*
#105481
1*
#105794
0*
#106107
1*
#106420
0*
#106733
1*
#107046
0*
#107359
1*
#107500
0L"
0P"
0T"
0$"
0."
0N"
0V"
0X"
0Z"
08"
0)"
0="
0B"
b0 w
0G"
1N
1@
1s
1G
1l
1e
1^
0O
0A
0t
0T
0K
0D
0p
0i
0b
0^"
1\
1P
1B
14
0J"
1U
1L
1E
1q
1j
1c
1\"
0]
0Q
b1 v
1I"
1S
0V
1W
1Z
0~
0{
0y
0H"
0!"
0|
0x
0_"
b0 1
0]"
0["
0Y"
0W"
1U"
b10101 %
b10101 2
b10101 a"
0O"
b10101 &
b10101 .
b10101 `"
b0 /
1)
#107672
0*
#107985
1*
#108298
0*
#108611
1*
#108924
0*
#109237
1*
#109550
0*
#109863
1*
#110000
1F"
1A"
0?"
1<"
07"
10"
1*"
1("
0%"
0#"
0}
0z
b1001010111011100110 (
b1001010111011100110 -
b1001010111011100110 3
b1001010111011100110 b"
0)
0+
1,
#110176
0*
#110489
1*
#110802
0*
#111115
1*
#111428
0*
#111741
1*
#112054
0*
#112367
1*
#112500
1P"
b100 w
1."
0@
1^"
1J"
1D
0\
0F
0\"
1]
1Y
b10 v
0I"
0S
0Z
1H"
1!"
1|
1x
b0 &
b0 .
b0 `"
b1 /
0M"
0Q"
b0 %
b0 2
b0 a"
0U"
b1 1
1]"
1)
#112680
0*
#112993
1*
#113306
0*
#113619
1*
#113932
0*
#114245
1*
#114558
0*
#114871
1*
#115000
0)
1+
#115184
0*
#115497
1*
#115810
0*
#116123
1*
#116436
0*
#116749
1*
#117062
0*
#117375
1*
#117500
1N"
1R"
1V"
1Z"
1)"
13"
1="
1G"
1P"
b10101110 w
1."
0G
09
0l
0^
0@
1K
1=
1p
1b
1D
0L
0E
0>
0q
0c
1F
1V
1\"
0Y
b11 v
1I"
0W
1Z
1~
1{
1y
0H"
0!"
0|
0x
1_"
b10 1
0]"
b100 %
b100 2
b100 a"
1Q"
b100 &
b100 .
b100 `"
b10 /
1)
#117688
0*
#118001
1*
#118314
0*
#118627
1*
#118940
0*
#119253
1*
#119566
0*
#119879
1*
#120000
0)
0+
0,
#120192
0*
#120505
1*
#120818
0*
#121131
1*
#121444
0*
#121757
1*
#122070
0*
#122383
1*
#122500
1X"
0R"
1B"
b11100110 w
03"
0e
19
1H
1A
1m
1f
1_
0K
0D
0=
0p
0b
0^"
0I
0B
0n
0g
0`
0J"
1L
1E
1>
1q
1c
0\"
1Q
b0 v
0I"
0V
0Z
1H"
1!"
1|
1x
b10101110 &
b10101110 .
b10101110 `"
b11 /
1O"
1S"
1W"
b10101110 %
b10101110 2
b10101110 a"
1["
b11 1
1]"
1)
#122696
0*
#123009
1*
#123322
0*
#123635
1*
#123948
0*
#124261
1*
#124574
0*
#124887
1*
#125000
0)
1+
#125200
0*
#125513
1*
#125826
0*
#126139
1*
#126452
0*
#126765
1*
#127078
0*
#127391
1*
#127500
0N"
0P"
0V"
0Z"
0X"
0)"
0."
0="
0G"
0R"
0B"
b0 w
03"
1G
1@
1l
1^
1e
19
0H
0A
0m
0f
0_
0K
0D
0=
0p
0b
0^"
1\
1I
1B
1n
1g
1`
0J"
1L
1E
1>
1q
1c
1\"
0]
0Q
b1 v
1I"
1S
0V
1W
1Z
0~
0{
0y
0H"
0!"
0|
0x
0_"
b0 1
0]"
1Y"
b11100110 %
b11100110 2
b11100110 a"
0S"
b11100110 &
b11100110 .
b11100110 `"
b0 /
1)
#127704
0*
#128017
1*
#128330
0*
#128643
1*
#128956
0*
#129269
1*
#129582
0*
#129895
1*
#130000
0D"
0A"
1?"
17"
15"
00"
1#"
1z
b1010111011010110111 (
b1010111011010110111 -
b1010111011010110111 3
b1010111011010110111 b"
0)
0+
1,
#130208
0*
#130521
1*
#130834
0*
#131147
1*
#131460
0*
#131773
1*
#132086
0*
#132399
1*
#132500
1L"
1P"
1$"
b101 w
1."
0N
0@
1^"
1J"
1T
1D
0\
0X
0F
0\"
1]
1Y
b10 v
0I"
0S
0Z
1H"
1!"
1|
1x
b0 &
b0 .
b0 `"
b1 /
0O"
0Q"
0W"
0Y"
b0 %
b0 2
b0 a"
0["
b1 1
1]"
1)
#132712
0*
#133025
1*
#133338
0*
#133651
1*
#133964
0*
#134277
1*
#134590
0*
#134903
1*
#135000
0)
1+
#135216
0*
#135529
1*
#135842
0*
#136155
1*
#136468
0*
#136781
1*
#137094
0*
#137407
1*
#137500
1N"
1T"
1V"
1X"
1)"
18"
1="
1B"
0L"
1P"
0$"
b1110110 w
1."
0G
0s
0l
0e
1N
0@
1K
16
1p
1i
0T
1D
0L
0E
07
0q
0j
1X
1F
1V
1\"
0Y
b11 v
1I"
0W
1Z
1~
1{
1y
0H"
0!"
0|
0x
1_"
b10 1
0]"
1Q"
b101 %
b101 2
b101 a"
1M"
b101 &
b101 .
b101 `"
b10 /
1)
#137720
0*
#138033
1*
#138346
0*
#138659
1*
#138972
0*
#139285
1*
#139598
0*
#139911
1*
#140000
0)
0+
0,
#140224
0*
#140537
1*
#140850
0*
#141163
1*
#141476
0*
#141789
1*
#142102
0*
#142415
1*
#142500
1L"
1Z"
0X"
1$"
1G"
b10110111 w
0B"
0N
0^
1e
1O
1H
1A
1t
1m
1_
0K
0D
06
0p
0i
0^"
0P
0I
0B
04
0n
0`
0J"
1L
1E
17
1q
1j
0\"
1Q
b0 v
0I"
0V
0Z
1H"
1!"
1|
1x
b1110110 &
b1110110 .
b1110110 `"
b11 /
0M"
1O"
1U"
1W"
b1110110 %
b1110110 2
b1110110 a"
1Y"
b11 1
1]"
1)
#142728
0*
#143041
1*
#143354
0*
#143667
1*
#143980
0*
#144293
1*
#144606
0*
#144919
1*
#145000
0)
1+
#145232
0*
#145545
1*
#145858
0*
#146171
1*
#146484
0*
#146797
1*
#147110
0*
#147423
1*
#147500
0N"
0P"
0T"
0V"
0L"
0Z"
0)"
0."
08"
0="
0X"
0$"
0G"
b0 w
0B"
1G
1@
1s
1l
1N
1^
1e
0O
0H
0A
0t
0m
0_
0K
0D
06
0p
0i
0^"
1\
1P
1I
1B
14
1n
1`
0J"
1L
1E
17
1q
1j
1\"
0]
0Q
b1 v
1I"
1S
0V
1W
1Z
0~
0{
0y
0H"
0!"
0|
0x
0_"
b0 1
0]"
1["
0Y"
b10110111 %
b10110111 2
b10110111 a"
1M"
b10110111 &
b10110111 .
b10110111 `"
b0 /
1)
#147736
0*
#148049
1*
#148362
0*
#148675
1*
#148988
0*
#149301
1*
#149614
0*
#149927
1*
#150000
0?"
0<"
07"
12"
10"
0-"
0("
1%"
0#"
0z
b1100011111010001000 (
b1100011111010001000 -
b1100011111010001000 3
b1100011111010001000 b"
0)
0+
1,
#150240
0*
#150553
1*
#150866
0*
#151179
1*
#151492
0*
#151805
1*
#152118
0*
#152431
1*
#152500
1N"
1P"
1)"
b110 w
1."
0G
0@
1^"
1J"
1K
1D
0\
0M
0F
0\"
1]
1Y
b10 v
0I"
0S
0Z
1H"
1!"
1|
1x
b0 &
b0 .
b0 `"
b1 /
0M"
0O"
0Q"
0U"
0W"
b0 %
b0 2
b0 a"
0["
b1 1
1]"
1)
#152744
0*
#153057
1*
#153370
0*
#153683
1*
#153996
0*
#154309
1*
#154622
0*
#154935
1*
#155000
0)
1+
#155248
0*
#155561
1*
#155874
0*
#156187
1*
#156500
0*
#156813
1*
#157126
0*
#157439
1*
#157500
1R"
1T"
1V"
13"
18"
1="
1N"
1P"
1)"
b111110 w
1."
09
0s
0l
0G
0@
1=
16
1p
1K
1D
0L
0E
0>
07
0q
1M
1F
1V
1\"
0Y
b11 v
1I"
0W
1Z
1~
1{
1y
0H"
0!"
0|
0x
1_"
b10 1
0]"
1Q"
b110 %
b110 2
b110 a"
1O"
b110 &
b110 .
b110 `"
b10 /
1)
#157752
0*
#158065
1*
#158378
0*
#158691
1*
#159004
0*
#159317
1*
#159630
0*
#159943
1*
#160000
0)
0+
0,
#160256
0*
#160569
1*
#160882
0*
#161195
1*
#161508
0*
#161821
1*
#162134
0*
#162447
1*
#162500
1Z"
0N"
0P"
0T"
0V"
1G"
0)"
0."
08"
b10001000 w
0="
0^
1G
1@
1s
1l
1:
1_
0K
0D
0=
06
0p
0^"
0;
0`
0J"
1L
1E
1>
17
1q
0\"
1Q
b0 v
0I"
0V
0Z
1H"
1!"
1|
1x
b111110 &
b111110 .
b111110 `"
b11 /
1S"
1U"
b111110 %
b111110 2
b111110 a"
1W"
b11 1
1]"
1)
#162760
0*
#163073
1*
#163386
0*
#163699
1*
#164012
0*
#164325
1*
#164638
0*
#164951
1*
#165000
0)
1+
#165264
0*
#165577
1*
#165890
0*
#166203
1*
#166516
0*
#166829
1*
#167142
0*
#167455
1*
#167500
0R"
0Z"
03"
0N"
0P"
0T"
0V"
0G"
0)"
0."
08"
b0 w
0="
19
1^
1G
1@
1s
1l
0:
0_
0K
0D
0=
06
0p
0^"
1\
1;
1`
0J"
1L
1E
1>
17
1q
1\"
0]
0Q
b1 v
1I"
1S
0V
1W
1Z
0~
0{
0y
0H"
0!"
0|
0x
0_"
b0 1
0]"
1["
0W"
0U"
0Q"
b10001000 %
b10001000 2
b10001000 a"
0O"
b10001000 &
b10001000 .
b10001000 `"
b0 /
1)
#167768
0*
#168081
1*
#168394
0*
#168707
1*
#169020
0*
#169333
1*
#169646
0*
#169959
1*
#170000
0\"
b0 v
0I"
0u
1[
1D"
1A"
1?"
1<"
05"
1-"
0+"
b1101110101011101100 (
b1101110101011101100 -
b1101110101011101100 3
b1101110101011101100 b"
0$
0)
0+
1,
#170272
0*
#170585
1*
#170898
0*
#171211
1*
#171524
0*
#171837
1*
#172150
0*
#172463
1*
#172500
00
b0 &
b0 .
b0 `"
0#
0K"
0S"
b0 %
b0 2
b0 a"
0["
1)
#172776
0*
#173089
1*
#173402
0*
#173715
1*
#174028
0*
#174341
1*
#174654
0*
#174967
1*
#175000
0)
1+
#175280
0*
#175593
1*
#175906
0*
#176219
1*
#176532
0*
#176845
1*
#177158
0*
#177471
1*
#177500
1)
#177784
0*
#178097
1*
#178410
0*
#178723
1*
#179036
0*
#179349
1*
#179662
0*
#179975
1*
#180000
0)
0+
0,
#180288
0*
#180601
1*
#180914
0*
#181227
1*
#181540
0*
#181853
1*
#182166
0*
#182479
1*
#182500
1)
#182792
0*
#183105
1*
#183418
0*
#183731
1*
#184044
0*
#184357
1*
#184670
0*
#184983
1*
#185000
0)
1+
#185296
0*
#185609
1*
#185922
0*
#186235
1*
#186548
0*
#186861
1*
#187174
0*
#187487
1*
#187500
1)
#187800
0*
#188113
1*
#188426
0*
#188739
1*
#189052
0*
#189365
1*
#189678
0*
#189991
1*
#190000
0F"
0?"
0<"
0:"
17"
15"
02"
00"
0-"
1+"
1}
1z
b1111001011101010000 (
b1111001011101010000 -
b1111001011101010000 3
b1111001011101010000 b"
1$
0'
0)
0+
1,
#190304
0*
#190617
1*
#190930
0*
#191243
1*
#191556
0*
#191869
1*
#192182
0*
#192495
1*
#192500
1)
#192808
0*
#193121
1*
#193434
0*
#193747
1*
#194060
0*
#194373
1*
#194686
0*
#194999
1*
#195000
0)
1+
#195312
0*
#195625
1*
#195938
0*
#196251
1*
#196564
0*
#196877
1*
#197190
0*
#197500
1)
#197503
1*
#197816
0*
#198129
1*
#198442
0*
#198755
1*
#199068
0*
#199381
1*
#199694
0*
#200000
0)
0+
0,
#200007
1*
#200320
0*
#200633
1*
#200946
0*
#201259
1*
#201572
0*
#201885
1*
#202198
0*
#202500
1)
#202511
1*
#202824
0*
#203137
1*
#203450
0*
#203763
1*
#204076
0*
#204389
1*
#204702
0*
#205000
0)
1+
#205015
1*
#205328
0*
#205641
1*
#205954
0*
#206267
1*
#206580
0*
#206893
1*
#207206
0*
#207500
1)
#207519
1*
#207832
0*
#208145
1*
#208458
0*
#208771
1*
#209084
0*
#209397
1*
#209710
0*
#210000
1\"
b1 v
1I"
1u
0[
1F"
0D"
1/"
1-"
0*"
0&"
0%"
0}
0z
b10000001010011010100 (
b10000001010011010100 -
b10000001010011010100 3
b10000001010011010100 b"
1'
0)
0+
1,
#210023
1*
#210336
0*
#210649
1*
#210962
0*
#211275
1*
#211588
0*
#211901
1*
#212214
0*
#212500
1R"
b1000 w
13"
09
1^"
1J"
1=
0\
0?
0\"
1]
1Y
b10 v
0I"
0S
0Z
1H"
1!"
1|
1x
10
b1 /
1#
1K"
b1 1
1]"
1)
#212527
1*
#212840
0*
#213153
1*
#213466
0*
#213779
1*
#214092
0*
#214405
1*
#214718
0*
#215000
0)
1+
#215031
1*
#215344
0*
#215657
1*
#215970
0*
#216283
1*
#216596
0*
#216909
1*
#217222
0*
#217500
1P"
1T"
1."
18"
0R"
b10100 w
03"
0@
0s
19
1D
16
0=
0E
07
1?
1V
1\"
0Y
b11 v
1I"
0W
1Z
1~
1{
1y
0H"
0!"
0|
0x
1_"
b10 1
0]"
b1000 %
b1000 2
b1000 a"
1S"
b1000 &
b1000 .
b1000 `"
b10 /
1)
#217535
1*
#217848
0*
#218161
1*
#218474
0*
#218787
1*
#219100
0*
#219413
1*
#219726
0*
#220000
0)
0+
0,
#220039
1*
#220352
0*
#220665
1*
#220978
0*
#221291
1*
#221604
0*
#221917
1*
#222230
0*
#222500
1X"
1Z"
1B"
b11010100 w
1G"
0e
0^
1A
1t
1f
1_
0D
06
0^"
0B
04
0g
0`
0J"
1E
17
0\"
1Q
b0 v
0I"
0V
0Z
1H"
1!"
1|
1x
b10100 &
b10100 .
b10100 `"
b11 /
1Q"
0S"
b10100 %
b10100 2
b10100 a"
1U"
b11 1
1]"
1)
#222543
1*
#222856
0*
#223169
1*
#223482
0*
#223795
1*
#224108
0*
#224421
1*
#224734
0*
#225000
0)
1+
#225047
1*
#225360
0*
#225673
1*
#225986
0*
#226299
1*
#226612
0*
#226925
1*
#227238
0*
#227500
0P"
0T"
0X"
0Z"
0."
08"
0B"
b0 w
0G"
1@
1s
1e
1^
0A
0t
0f
0_
0D
06
0^"
1\
1B
14
1g
1`
0J"
1E
17
1\"
0]
0Q
b1 v
1I"
1S
0V
1W
1Z
0~
0{
0y
0H"
0!"
0|
0x
0_"
b0 1
0]"
1["
b11010100 %
b11010100 2
b11010100 a"
1Y"
b11010100 &
b11010100 .
b11010100 `"
b0 /
1)
#227551
1*
#227864
0*
#228177
1*
#228490
0*
#228803
1*
#229116
0*
#229429
1*
#229742
0*
#230000
0F"
1D"
12"
0-"
0+"
1&"
b10001001001001011000 (
b10001001001001011000 -
b10001001001001011000 3
b10001001001001011000 b"
0)
0+
1,
#230055
1*
#230368
0*
#230681
1*
#230994
0*
#231307
1*
#231620
0*
#231933
1*
#232246
0*
#232500
1R"
b1000 w
13"
09
1^"
1J"
1=
0\
0?
0\"
1]
1Y
b10 v
0I"
0S
0Z
1H"
1!"
1|
1x
b0 &
b0 .
b0 `"
b1 /
0Q"
0U"
0Y"
b0 %
b0 2
b0 a"
0["
b1 1
1]"
1)
#232559
1*
#232872
0*
#233185
1*
#233498
0*
#233811
1*
#234124
0*
#234437
1*
#234750
0*
#235000
0)
1+
#235063
1*
#235376
0*
#235689
1*
#236002
0*
#236315
1*
#236628
0*
#236941
1*
#237254
0*
#237500
1N"
1T"
1Z"
1)"
18"
1G"
0R"
b10010010 w
03"
0G
0s
0^
19
1K
16
1b
0=
0L
07
0c
1?
1V
1\"
0Y
b11 v
1I"
0W
1Z
1~
1{
1y
0H"
0!"
0|
0x
1_"
b10 1
0]"
b1000 %
b1000 2
b1000 a"
1S"
b1000 &
b1000 .
b1000 `"
b10 /
1)
#237567
1*
#237880
0*
#238193
1*
#238506
0*
#238819
1*
#239132
0*
#239445
1*
#239758
0*
#240000
0)
0+
0,
#240071
1*
#240384
0*
#240697
1*
#241010
0*
#241323
1*
#241636
0*
#241949
1*
#242262
0*
#242500
1R"
1X"
0N"
0Z"
13"
1B"
0)"
b1011000 w
0G"
09
0e
1G
1^
1:
1t
1f
0K
06
0b
0^"
0;
04
0g
0J"
1L
17
1c
0\"
1Q
b0 v
0I"
0V
0Z
1H"
1!"
1|
1x
b10010010 &
b10010010 .
b10010010 `"
b11 /
1O"
0S"
1U"
b10010010 %
b10010010 2
b10010010 a"
1["
b11 1
1]"
1)
#242575
1*
#242888
0*
#243201
1*
#243514
0*
#243827
1*
#244140
0*
#244453
1*
#244766
0*
#245000
0)
1+
#245079
1*
#245392
0*
#245705
1*
#246018
0*
#246331
1*
#246644
0*
#246957
1*
#247270
0*
#247500
0T"
0R"
0X"
08"
0N"
0Z"
03"
0B"
0)"
b0 w
0G"
1s
19
1e
1G
1^
0:
0t
0f
0K
06
0b
0^"
1\
1;
14
1g
0J"
1L
17
1c
1\"
0]
0Q
b1 v
1I"
1S
0V
1W
1Z
0~
0{
0y
0H"
0!"
0|
0x
0_"
b0 1
0]"
0["
1Y"
1S"
b1011000 %
b1011000 2
b1011000 a"
0O"
b1011000 &
b1011000 .
b1011000 `"
b0 /
1)
#247583
1*
#247896
0*
#248209
1*
#248522
0*
#248835
1*
#249148
0*
#249461
1*
#249774
0*
#250000
1F"
0D"
05"
10"
1-"
1+"
1}
1z
b10010000111111011100 (
b10010000111111011100 -
b10010000111111011100 3
b10010000111111011100 b"
0)
0+
1,
#250087
1*
#250400
0*
#250713
1*
#251026
0*
#251339
1*
#251652
0*
#251965
1*
#252278
0*
#252500
1L"
1R"
1$"
b1001 w
13"
0N
09
1^"
1J"
1T
1=
0\
0X
0?
0\"
1]
1Y
b10 v
0I"
0S
0Z
1H"
1!"
1|
1x
b0 &
b0 .
b0 `"
b1 /
0S"
0U"
b0 %
b0 2
b0 a"
0Y"
b1 1
1]"
1)
#252591
1*
#252904
0*
#253217
1*
#253530
0*
#253843
1*
#254156
0*
#254469
1*
#254782
0*
#255000
0)
1+
#255095
1*
#255408
0*
#255721
1*
#256034
0*
#256347
1*
#256660
0*
#256973
1*
#257286
0*
#257500
1N"
1P"
1)"
1."
1L"
1R"
1$"
b1111 w
13"
0G
0@
0N
09
1K
1D
1T
1=
0U
0L
0E
0>
1X
1?
1V
1\"
0Y
b11 v
1I"
0W
1Z
1~
1{
1y
0H"
0!"
0|
0x
1_"
b10 1
0]"
1S"
b1001 %
b1001 2
b1001 a"
1M"
b1001 &
b1001 .
b1001 `"
b10 /
1)
#257599
1*
#257912
0*
#258225
1*
#258538
0*
#258851
1*
#259164
0*
#259477
1*
#259790
0*
#260000
0)
0+
0,
#260103
1*
#260416
0*
#260729
1*
#261042
0*
#261355
1*
#261668
0*
#261981
1*
#262294
0*
#262500
1T"
1X"
1Z"
0L"
0N"
18"
1B"
1G"
0$"
b11011100 w
0)"
0s
0e
0^
1N
1G
1A
1:
1t
1f
1_
0T
0K
0D
0=
0^"
0B
0;
04
0g
0`
0J"
1U
1L
1E
1>
0\"
1Q
b0 v
0I"
0V
0Z
1H"
1!"
1|
1x
b1111 &
b1111 .
b1111 `"
b11 /
1O"
b1111 %
b1111 2
b1111 a"
1Q"
b11 1
1]"
1)
#262607
1*
#262920
0*
#263233
1*
#263546
0*
#263859
1*
#264172
0*
#264485
1*
#264798
0*
#265000
0)
1+
#265111
1*
#265424
0*
#265737
1*
#266050
0*
#266363
1*
#266676
0*
#266989
1*
#267302
0*
#267500
0P"
0R"
0T"
0X"
0Z"
0."
03"
0L"
0N"
08"
0B"
0G"
0$"
b0 w
0)"
1@
19
1s
1e
1^
1N
1G
0A
0:
0t
0f
0_
0T
0K
0D
0=
0^"
1\
1B
1;
14
1g
1`
0J"
1U
1L
1E
1>
1\"
0]
0Q
b1 v
1I"
1S
0V
1W
1Z
0~
0{
0y
0H"
0!"
0|
0x
0_"
b0 1
0]"
1["
1Y"
1U"
0O"
b11011100 %
b11011100 2
b11011100 a"
0M"
b11011100 &
b11011100 .
b11011100 `"
b0 /
1)
#267615
1*
#267928
0*
#268241
1*
#268554
0*
#268867
1*
#269180
0*
#269493
1*
#269806
0*
#270000
0F"
1D"
1<"
07"
02"
0-"
0&"
b10011000110101100000 (
b10011000110101100000 -
b10011000110101100000 3
b10011000110101100000 b"
0)
0+
1,
#270119
1*
#270432
0*
#270745
1*
#271058
0*
#271371
1*
#271684
0*
#271997
1*
#272310
0*
#272500
1L"
1R"
1$"
b1001 w
13"
0N
09
1^"
1J"
1T
1=
0\
0X
0?
0\"
1]
1Y
b10 v
0I"
0S
0Z
1H"
1!"
1|
1x
b0 &
b0 .
b0 `"
b1 /
0Q"
0S"
0U"
0Y"
b0 %
b0 2
b0 a"
0["
b1 1
1]"
1)
#272623
1*
#272936
0*
#273249
1*
#273562
0*
#273875
1*
#274188
0*
#274501
1*
#274814
0*
#275000
0)
1+
#275127
1*
#275440
0*
#275753
1*
#276066
0*
#276379
1*
#276692
0*
#277005
1*
#277318
0*
#277500
1P"
1Z"
1."
1G"
1L"
1R"
1$"
b10001101 w
13"
0@
0^
0N
09
1D
1b
1T
1=
0U
0E
0>
0c
1X
1?
1V
1\"
0Y
b11 v
1I"
0W
1Z
1~
1{
1y
0H"
0!"
0|
0x
1_"
b10 1
0]"
1S"
b1001 %
b1001 2
b1001 a"
1M"
b1001 &
b1001 .
b1001 `"
b10 /
1)
#277631
1*
#277944
0*
#278257
1*
#278570
0*
#278883
1*
#279196
0*
#279509
1*
#279822
0*
#280000
0)
0+
0,
#280135
1*
#280448
0*
#280761
1*
#281074
0*
#281387
1*
#281700
0*
#282013
1*
#282326
0*
#282500
1V"
1X"
0L"
0P"
0R"
0Z"
1="
1B"
0$"
0."
03"
b1100000 w
0G"
0l
0e
1N
1@
19
1^
1m
1f
0T
0D
0=
0b
0^"
0n
0g
0J"
1U
1E
1>
1c
0\"
1Q
b0 v
0I"
0V
0Z
1H"
1!"
1|
1x
b10001101 &
b10001101 .
b10001101 `"
b11 /
1Q"
b10001101 %
b10001101 2
b10001101 a"
1["
b11 1
1]"
1)
#282639
1*
#282952
0*
#283265
1*
#283578
0*
#283891
1*
#284204
0*
#284517
1*
#284830
0*
#285000
0)
1+
#285143
1*
#285456
0*
#285769
1*
#286082
0*
#286395
1*
#286708
0*
#287021
1*
#287334
0*
#287500
0V"
0X"
0L"
0P"
0R"
0Z"
0="
0B"
0$"
0."
03"
b0 w
0G"
1l
1e
1N
1@
19
1^
0m
0f
0T
0D
0=
0b
0^"
1\
1n
1g
0J"
1U
1E
1>
1c
1\"
0]
0Q
b1 v
1I"
1S
0V
1W
1Z
0~
0{
0y
0H"
0!"
0|
0x
0_"
b0 1
0]"
0["
1Y"
1W"
0S"
0Q"
b1100000 %
b1100000 2
b1100000 a"
0M"
b1100000 &
b1100000 .
b1100000 `"
b0 /
1)
#287647
1*
#287960
0*
#288273
1*
#288586
0*
#288899
1*
#289212
0*
#289525
1*
#289838
0*
#290000
1F"
0D"
1-"
0+"
1&"
1%"
0}
0z
b10100000101011100100 (
b10100000101011100100 -
b10100000101011100100 3
b10100000101011100100 b"
0)
0+
1,
#290151
1*
#290464
0*
#290777
1*
#291090
0*
#291403
1*
#291716
0*
#292029
1*
#292342
0*
#292500
1N"
1R"
1)"
b1010 w
13"
0G
09
1^"
1J"
1K
1=
0\
0M
0?
0\"
1]
1Y
b10 v
0I"
0S
0Z
1H"
1!"
1|
1x
b0 &
b0 .
b0 `"
b1 /
0W"
b0 %
b0 2
b0 a"
0Y"
b1 1
1]"
1)
#292655
1*
#292968
0*
#293281
1*
#293594
0*
#293907
1*
#294220
0*
#294533
1*
#294846
0*
#295000
0)
1+
#295159
1*
#295472
0*
#295785
1*
#296098
0*
#296411
1*
#296724
0*
#297037
1*
#297350
0*
#297500
1N"
1R"
1)"
b1010 w
13"
0G
09
1K
1=
0L
0>
1M
1?
1V
1\"
0Y
b11 v
1I"
0W
1Z
1~
1{
1y
0H"
0!"
0|
0x
1_"
b10 1
0]"
1S"
b1010 %
b1010 2
b1010 a"
1O"
b1010 &
b1010 .
b1010 `"
b10 /
1)
#297663
1*
#297976
0*
#298289
1*
#298602
0*
#298915
1*
#299228
0*
#299541
1*
#299854
0*
#300000
0)
0+
0,
#300167
1*
#300480
0*
#300793
1*
#301106
0*
#301419
1*
#301732
0*
#302045
1*
#302358
0*
#302500
1P"
1V"
1X"
1Z"
0N"
0R"
1."
1="
1B"
1G"
0)"
b11100100 w
03"
0@
0l
0e
0^
1G
19
1A
1m
1f
1_
0K
0=
0^"
0B
0n
0g
0`
0J"
1L
1>
0\"
1Q
b0 v
0I"
0V
0Z
1H"
1!"
1|
1x
b11 /
b11 1
1]"
1)
#302671
1*
#302984
0*
#303297
1*
#303610
0*
#303923
1*
#304236
0*
#304549
1*
#304862
0*
#305000
0)
1+
#305175
1*
#305488
0*
#305801
1*
#306114
0*
#306427
1*
#306740
0*
#307053
1*
#307366
0*
#307500
0P"
0V"
0X"
0Z"
0N"
0R"
0."
0="
0B"
0G"
0)"
b0 w
03"
1@
1l
1e
1^
1G
19
0A
0m
0f
0_
0K
0=
0^"
1\
1B
1n
1g
1`
0J"
1L
1>
1\"
0]
0Q
b1 v
1I"
1S
0V
1W
1Z
0~
0{
0y
0H"
0!"
0|
0x
0_"
b0 1
0]"
1["
1Y"
1W"
0S"
1Q"
b11100100 %
b11100100 2
b11100100 a"
0O"
b11100100 &
b11100100 .
b11100100 `"
b0 /
1)
#307679
1*
#307992
0*
#308305
1*
#308618
0*
#308931
1*
#309244
0*
#309557
1*
#309870
0*
#310000
0F"
1D"
12"
0-"
0&"
b10101000100001101000 (
b10101000100001101000 -
b10101000100001101000 3
b10101000100001101000 b"
0)
0+
1,
#310183
1*
#310496
0*
#310809
1*
#311122
0*
#311435
1*
#311748
0*
#312061
1*
#312374
0*
#312500
1N"
1R"
1)"
b1010 w
13"
0G
09
1^"
1J"
1K
1=
0\
0M
0?
0\"
1]
1Y
b10 v
0I"
0S
0Z
1H"
1!"
1|
1x
b0 &
b0 .
b0 `"
b1 /
0Q"
0W"
0Y"
b0 %
b0 2
b0 a"
0["
b1 1
1]"
1)
#312687
1*
#313000
0*
#313313
1*
#313626
0*
#313939
1*
#314252
0*
#314565
1*
#314878
0*
#315000
0)
1+
#315191
1*
#315504
0*
#315817
1*
#316130
0*
#316443
1*
#316756
0*
#317069
1*
#317382
0*
#317500
1Z"
1G"
0N"
1R"
0)"
b10001000 w
13"
0^
1G
09
1b
0K
1=
0>
0c
1M
1?
1V
1\"
0Y
b11 v
1I"
0W
1Z
1~
1{
1y
0H"
0!"
0|
0x
1_"
b10 1
0]"
1S"
b1010 %
b1010 2
b1010 a"
1O"
b1010 &
b1010 .
b1010 `"
b10 /
1)
#317695
1*
#318008
0*
#318321
1*
#318634
0*
#318947
1*
#319260
0*
#319573
1*
#319886
0*
#320000
0)
0+
0,
#320199
1*
#320512
0*
#320825
1*
#321138
0*
#321451
1*
#321764
0*
#322077
1*
#322390
0*
#322500
1V"
1X"
0Z"
1="
1B"
b1101000 w
0G"
0l
0e
1^
1:
1m
1f
0=
0b
0^"
0;
0n
0g
0J"
1>
1c
0\"
1Q
b0 v
0I"
0V
0Z
1H"
1!"
1|
1x
b10001000 &
b10001000 .
b10001000 `"
b11 /
0O"
b10001000 %
b10001000 2
b10001000 a"
1["
b11 1
1]"
1)
#322703
1*
#323016
0*
#323329
1*
#323642
0*
#323955
1*
#324268
0*
#324581
1*
#324894
0*
#325000
0)
1+
#325207
1*
#325520
0*
#325833
1*
#326146
0*
#326459
1*
#326772
0*
#327085
1*
#327398
0*
#327500
0R"
0V"
0X"
03"
0Z"
0="
0B"
b0 w
0G"
19
1l
1e
1^
0:
0m
0f
0=
0b
0^"
1\
1;
1n
1g
0J"
1>
1c
1\"
0]
0Q
b1 v
1I"
1S
0V
1W
1Z
0~
0{
0y
0H"
0!"
0|
0x
0_"
b0 1
0]"
0["
1Y"
b1101000 %
b1101000 2
b1101000 a"
1W"
b1101000 &
b1101000 .
b1101000 `"
b0 /
1)
#327711
1*
#328024
0*
#328337
1*
#328650
0*
#328963
1*
#329276
0*
#329589
1*
#329902
0*
#330000
1F"
0D"
00"
1-"
1+"
1}
1z
b10110000010111101100 (
b10110000010111101100 -
b10110000010111101100 3
b10110000010111101100 b"
0)
0+
1,
#330215
1*
#330528
0*
#330841
1*
#331154
0*
#331467
1*
#331780
0*
#332093
1*
#332406
0*
#332500
1L"
1N"
1R"
1$"
1)"
b1011 w
13"
0N
0G
09
1^"
1J"
1T
1K
1=
0\
0X
0M
0?
0\"
1]
1Y
b10 v
0I"
0S
0Z
1H"
1!"
1|
1x
b0 &
b0 .
b0 `"
b1 /
0S"
0W"
b0 %
b0 2
b0 a"
0Y"
b1 1
1]"
1)
#332719
1*
#333032
0*
#333345
1*
#333658
0*
#333971
1*
#334284
0*
#334597
1*
#334910
0*
#335000
0)
1+
#335223
1*
#335536
0*
#335849
1*
#336162
0*
#336475
1*
#336788
0*
#337101
1*
#337414
0*
#337500
1P"
1."
1L"
0N"
0R"
1$"
0)"
b101 w
03"
0@
0N
1G
19
1D
1T
0K
0=
0U
0E
1X
1M
1?
1V
1\"
0Y
b11 v
1I"
0W
1Z
1~
1{
1y
0H"
0!"
0|
0x
1_"
b10 1
0]"
1S"
1O"
b1011 %
b1011 2
b1011 a"
1M"
b1011 &
b1011 .
b1011 `"
b10 /
1)
#337727
1*
#338040
0*
#338353
1*
#338666
0*
#338979
1*
#339292
0*
#339605
1*
#339918
0*
#340000
0)
0+
0,
#340231
1*
#340544
0*
#340857
1*
#341170
0*
#341483
1*
#341796
0*
#342109
1*
#342422
0*
#342500
1R"
1V"
1X"
1Z"
0L"
13"
1="
1B"
1G"
b11101100 w
0$"
09
0l
0e
0^
1N
1A
1:
1m
1f
1_
0T
0D
0^"
0B
0;
0n
0g
0`
0J"
1U
1E
0\"
1Q
b0 v
0I"
0V
0Z
1H"
1!"
1|
1x
b101 &
b101 .
b101 `"
b11 /
0O"
1Q"
b101 %
b101 2
b101 a"
0S"
b11 1
1]"
1)
#342735
1*
#343048
0*
#343361
1*
#343674
0*
#343987
1*
#344300
0*
#344613
1*
#344926
0*
#345000
0)
1+
#345239
1*
#345552
0*
#345865
1*
#346178
0*
#346491
1*
#346804
0*
#347117
1*
#347430
0*
#347500
0P"
0R"
0V"
0X"
0Z"
0."
0L"
03"
0="
0B"
0G"
b0 w
0$"
1@
19
1l
1e
1^
1N
0A
0:
0m
0f
0_
0T
0D
0^"
1\
1B
1;
1n
1g
1`
0J"
1U
1E
1\"
0]
0Q
b1 v
1I"
1S
0V
1W
1Z
0~
0{
0y
0H"
0!"
0|
0x
0_"
b0 1
0]"
1["
1Y"
1W"
1S"
b11101100 %
b11101100 2
b11101100 a"
0M"
b11101100 &
b11101100 .
b11101100 `"
b0 /
1)
#347743
1*
#348056
0*
#348369
1*
#348682
0*
#348995
1*
#349308
0*
#349621
1*
#349934
0*
#350000
0F"
1D"
17"
02"
0-"
0+"
1&"
b10111000001101110000 (
b10111000001101110000 -
b10111000001101110000 3
b10111000001101110000 b"
0)
0+
1,
#350247
1*
#350560
0*
#350873
1*
#351186
0*
#351499
1*
#351812
0*
#352125
1*
#352438
0*
#352500
1L"
1N"
1R"
1$"
1)"
b1011 w
13"
0N
0G
09
1^"
1J"
1T
1K
1=
0\
0X
0M
0?
0\"
1]
1Y
b10 v
0I"
0S
0Z
1H"
1!"
1|
1x
b0 &
b0 .
b0 `"
b1 /
0Q"
0S"
0W"
0Y"
b0 %
b0 2
b0 a"
0["
b1 1
1]"
1)
#352751
1*
#353064
0*
#353377
1*
#353690
0*
#354003
1*
#354316
0*
#354629
1*
#354942
0*
#355000
0)
1+
#355255
1*
#355568
0*
#355881
1*
#356194
0*
#356507
1*
#356820
0*
#357133
1*
#357446
0*
#357500
1Z"
1G"
1L"
1N"
0R"
1$"
1)"
b10000011 w
03"
0^
0N
0G
19
1b
1T
1K
0=
0U
0L
0c
1X
1M
1?
1V
1\"
0Y
b11 v
1I"
0W
1Z
1~
1{
1y
0H"
0!"
0|
0x
1_"
b10 1
0]"
1S"
1O"
b1011 %
b1011 2
b1011 a"
1M"
b1011 &
b1011 .
b1011 `"
b10 /
1)
#357759
1*
#358072
0*
#358385
1*
#358698
0*
#359011
1*
#359324
0*
#359637
1*
#359950
0*
#360000
0)
0+
0,
#360263
1*
#360576
0*
#360889
1*
#361202
0*
#361515
1*
#361828
0*
#362141
1*
#362454
0*
#362500
1T"
1V"
1X"
0L"
0N"
0Z"
18"
1="
1B"
0$"
0)"
b1110000 w
0G"
0s
0l
0e
1N
1G
1^
1t
1m
1f
0T
0K
0b
0^"
04
0n
0g
0J"
1U
1L
1c
0\"
1Q
b0 v
0I"
0V
0Z
1H"
1!"
1|
1x
b10000011 &
b10000011 .
b10000011 `"
b11 /
0S"
b10000011 %
b10000011 2
b10000011 a"
1["
b11 1
1]"
1)
#362767
1*
#363080
0*
#363393
1*
#363706
0*
#364019
1*
#364332
0*
#364645
1*
#364958
0*
#365000
0)
1+
#365271
1*
#365584
0*
#365897
1*
#366210
0*
#366523
1*
#366836
0*
#367149
1*
#367462
0*
#367500
0T"
0V"
0X"
0L"
0N"
0Z"
08"
0="
0B"
0$"
0)"
b0 w
0G"
1s
1l
1e
1N
1G
1^
0t
0m
0f
0T
0K
0b
0^"
1\
14
1n
1g
0J"
1U
1L
1c
1\"
0]
0Q
b1 v
1I"
1S
0V
1W
1Z
0~
0{
0y
0H"
0!"
0|
0x
0_"
b0 1
0]"
0["
1Y"
1W"
1U"
0O"
b1110000 %
b1110000 2
b1110000 a"
0M"
b1110000 &
b1110000 .
b1110000 `"
b0 /
1)
#367775
1*
#368088
0*
#368401
1*
#368714
0*
#369027
1*
#369340
0*
#369653
1*
#369966
0*
#370000
0)
0+
1,
